…
[RL MODEL] ========== OPERATOR FEATURES ==========
[RL MODEL] Operator Type: PROJECTION
[RL MODEL] Operator Name: PROJECTION
[RL MODEL] DuckDB Estimated Cardinality: 50482
[RL MODEL] ============================================

[RL MODEL] MLP prediction: log(card)=1.043026 -> card=2.837790

[RL MODEL] Returning model prediction: 2

[RL TRAINING] Starting collection of actual cardinalities...

[RL TRAINING] Finished collecting actual cardinalities

┌────────────────────┬─────────────┬───────────────┐
│       c_name       │ order_count │  total_price  │
│      varchar       │    int64    │ decimal(38,2) │
├────────────────────┼─────────────┼───────────────┤
│ Customer#000088414 │           9 │    1958132.47 │
│ Customer#000053290 │          10 │    1957389.32 │
│ Customer#000020011 │          10 │    1949788.52 │
│ Customer#000117082 │          11 │    1872979.21 │
│ Customer#000112117 │          11 │    1866779.13 │
│ Customer#000025243 │           8 │    1862214.36 │
│ Customer#000108496 │          11 │    1830250.24 │
│ Customer#000127672 │           9 │    1823415.93 │
│ Customer#000094849 │           9 │    1812001.26 │
│ Customer#000001540 │           8 │    1793261.09 │
│ Customer#000095488 │           9 │    1789249.90 │
│ Customer#000071704 │           9 │    1788159.93 │
│ Customer#000060139 │           9 │    1787416.10 │
│ Customer#000027571 │           9 │    1782722.22 │
│ Customer#000088354 │           9 │    1760292.59 │
│ Customer#000040912 │           9 │    1754607.20 │
│ Customer#000042577 │           9 │    1748399.16 │
│ Customer#000115471 │          12 │    1738301.97 │
│ Customer#000116560 │           9 │    1727262.17 │
│ Customer#000109915 │           8 │    1725540.72 │
│         ·          │           · │          ·    │
│         ·          │           · │          ·    │
│         ·          │           · │          ·    │
│ Customer#000132850 │           1 │       1520.56 │
│ Customer#000142463 │           1 │       1515.82 │
│ Customer#000083533 │           1 │       1495.20 │
│ Customer#000052211 │           1 │       1421.52 │
│ Customer#000096215 │           1 │       1371.84 │
│ Customer#000127630 │           1 │       1356.05 │
│ Customer#000013724 │           1 │       1349.10 │
│ Customer#000001703 │           1 │       1318.63 │
│ Customer#000073484 │           1 │       1316.03 │
│ Customer#000052280 │           1 │       1313.23 │
│ Customer#000056426 │           1 │       1297.97 │
│ Customer#000112282 │           1 │       1289.73 │
│ Customer#000097105 │           1 │       1270.51 │
│ Customer#000133955 │           1 │       1184.69 │
│ Customer#000116092 │           1 │       1122.27 │
│ Customer#000009835 │           1 │       1089.19 │
│ Customer#000094016 │           1 │       1088.58 │
│ Customer#000060863 │           1 │       1048.91 │
│ Customer#000046784 │           1 │       1031.61 │
│ Customer#000019379 │           1 │        909.18 │
├────────────────────┴─────────────┴───────────────┤
│ 39128 rows (40 shown)                  3 columns │
└──────────────────────────────────────────────────┘
…
[RL MODEL] MLP prediction: log(card)=1.351852 -> card=3.864575

[RL MODEL] Returning model prediction: 3

[RL TRAINING] Starting collection of actual cardinalities...

[RL TRAINING DEBUG] Visiting operator: RESULT_COLLECTOR, has_rl_state=0, num_children=0

[RL TRAINING] Finished collecting actual cardinalities

┌────────────────────┬─────────────┬───────────────┐
│       c_name       │ order_count │  total_price  │
│      varchar       │    int64    │ decimal(38,2) │
├────────────────────┼─────────────┼───────────────┤
│ Customer#000088414 │           9 │    1958132.47 │
│ Customer#000053290 │          10 │    1957389.32 │
│ Customer#000020011 │          10 │    1949788.52 │
│ Customer#000117082 │          11 │    1872979.21 │
│ Customer#000112117 │          11 │    1866779.13 │
│ Customer#000025243 │           8 │    1862214.36 │
│ Customer#000108496 │          11 │    1830250.24 │
│ Customer#000127672 │           9 │    1823415.93 │
│ Customer#000094849 │           9 │    1812001.26 │
│ Customer#000001540 │           8 │    1793261.09 │
│ Customer#000095488 │           9 │    1789249.90 │
│ Customer#000071704 │           9 │    1788159.93 │
│ Customer#000060139 │           9 │    1787416.10 │
│ Customer#000027571 │           9 │    1782722.22 │
│ Customer#000088354 │           9 │    1760292.59 │
│ Customer#000040912 │           9 │    1754607.20 │
│ Customer#000042577 │           9 │    1748399.16 │
│ Customer#000115471 │          12 │    1738301.97 │
│ Customer#000116560 │           9 │    1727262.17 │
│ Customer#000109915 │           8 │    1725540.72 │
│         ·          │           · │          ·    │
│         ·          │           · │          ·    │
│         ·          │           · │          ·    │
│ Customer#000132850 │           1 │       1520.56 │
│ Customer#000142463 │           1 │       1515.82 │
│ Customer#000083533 │           1 │       1495.20 │
│ Customer#000052211 │           1 │       1421.52 │
│ Customer#000096215 │           1 │       1371.84 │
│ Customer#000127630 │           1 │       1356.05 │
│ Customer#000013724 │           1 │       1349.10 │
│ Customer#000001703 │           1 │       1318.63 │
│ Customer#000073484 │           1 │       1316.03 │
│ Customer#000052280 │           1 │       1313.23 │
│ Customer#000056426 │           1 │       1297.97 │
│ Customer#000112282 │           1 │       1289.73 │
│ Customer#000097105 │           1 │       1270.51 │
│ Customer#000133955 │           1 │       1184.69 │
│ Customer#000116092 │           1 │       1122.27 │
│ Customer#000009835 │           1 │       1089.19 │
│ Customer#000094016 │           1 │       1088.58 │
│ Customer#000060863 │           1 │       1048.91 │
│ Customer#000046784 │           1 │       1031.61 │
│ Customer#000019379 │           1 │        909.18 │
├────────────────────┴─────────────┴───────────────┤
│ 39128 rows (40 shown)                  3 columns │
└──────────────────────────────────────────────────┘
…
[RL TRAINING DEBUG] Visiting operator: FILTER, has_rl_state=1, num_children=1

[RL TRAINING DEBUG] Found operator with RL state: Actual=67989, Predicted=307

[RL TRAINING] Collected cardinality for operator: Actual=67989, Predicted=307, DuckDB=30000

[RL TRAINING DEBUG] Visiting operator: SEQ_SCAN , has_rl_state=1, num_children=0

[RL TRAINING DEBUG] Found operator with RL state: Actual=67989, Predicted=569

[RL TRAINING] Collected cardinality for operator: Actual=67989, Predicted=569, DuckDB=30000

[RL TRAINING] Finished collecting actual cardinalities

┌────────────────────┬─────────────┬───────────────┐
│       c_name       │ order_count │  total_price  │
│      varchar       │    int64    │ decimal(38,2) │
├────────────────────┼─────────────┼───────────────┤
│ Customer#000088414 │           9 │    1958132.47 │
│ Customer#000053290 │          10 │    1957389.32 │
│ Customer#000020011 │          10 │    1949788.52 │
│ Customer#000117082 │          11 │    1872979.21 │
│ Customer#000112117 │          11 │    1866779.13 │
│ Customer#000025243 │           8 │    1862214.36 │
│ Customer#000108496 │          11 │    1830250.24 │
│ Customer#000127672 │           9 │    1823415.93 │
│ Customer#000094849 │           9 │    1812001.26 │
│ Customer#000001540 │           8 │    1793261.09 │
│ Customer#000095488 │           9 │    1789249.90 │
│ Customer#000071704 │           9 │    1788159.93 │
│ Customer#000060139 │           9 │    1787416.10 │
│ Customer#000027571 │           9 │    1782722.22 │
│ Customer#000088354 │           9 │    1760292.59 │
│ Customer#000040912 │           9 │    1754607.20 │
│ Customer#000042577 │           9 │    1748399.16 │
│ Customer#000115471 │          12 │    1738301.97 │
│ Customer#000116560 │           9 │    1727262.17 │
│ Customer#000109915 │           8 │    1725540.72 │
│         ·          │           · │          ·    │
│         ·          │           · │          ·    │
│         ·          │           · │          ·    │
│ Customer#000132850 │           1 │       1520.56 │
│ Customer#000142463 │           1 │       1515.82 │
│ Customer#000083533 │           1 │       1495.20 │
│ Customer#000052211 │           1 │       1421.52 │
│ Customer#000096215 │           1 │       1371.84 │
│ Customer#000127630 │           1 │       1356.05 │
│ Customer#000013724 │           1 │       1349.10 │
│ Customer#000001703 │           1 │       1318.63 │
│ Customer#000073484 │           1 │       1316.03 │
│ Customer#000052280 │           1 │       1313.23 │
│ Customer#000056426 │           1 │       1297.97 │
│ Customer#000112282 │           1 │       1289.73 │
│ Customer#000097105 │           1 │       1270.51 │
│ Customer#000133955 │           1 │       1184.69 │
│ Customer#000116092 │           1 │       1122.27 │
│ Customer#000009835 │           1 │       1089.19 │
│ Customer#000094016 │           1 │       1088.58 │
│ Customer#000060863 │           1 │       1048.91 │
│ Customer#000046784 │           1 │       1031.61 │
│ Customer#000019379 │           1 │        909.18 │
├────────────────────┴─────────────┴───────────────┤
│ 39128 rows (40 shown)                  3 columns │
└──────────────────────────────────────────────────┘
…
[RL TRAINING] Root is RESULT_COLLECTOR, traversing actual plan

[RL TRAINING] HASH_GROUP_BY: Actual=39128, Pred=10686474581524, Q-err=273115788.732468

[RL TRAINING] HASH_JOIN: Actual=103202, Pred=10686474581524, Q-err=103549103.520513

[RL TRAINING] SEQ_SCAN : Actual=228636, Pred=10686474581524, Q-err=46740122.209643

[RL TRAINING] FILTER: Actual=67989, Pred=1361424214275, Q-err=20024183.533733

[RL TRAINING] SEQ_SCAN : Actual=67989, Pred=10686474581524, Q-err=157179464.053362

[RL TRAINING] Finished collecting actual cardinalities

┌────────────────────┬─────────────┬───────────────┐
│       c_name       │ order_count │  total_price  │
│      varchar       │    int64    │ decimal(38,2) │
├────────────────────┼─────────────┼───────────────┤
│ Customer#000088414 │           9 │    1958132.47 │
│ Customer#000053290 │          10 │    1957389.32 │
│ Customer#000020011 │          10 │    1949788.52 │
│ Customer#000117082 │          11 │    1872979.21 │
│ Customer#000112117 │          11 │    1866779.13 │
│ Customer#000025243 │           8 │    1862214.36 │
│ Customer#000108496 │          11 │    1830250.24 │
│ Customer#000127672 │           9 │    1823415.93 │
│ Customer#000094849 │           9 │    1812001.26 │
│ Customer#000001540 │           8 │    1793261.09 │
│ Customer#000095488 │           9 │    1789249.90 │
│ Customer#000071704 │           9 │    1788159.93 │
│ Customer#000060139 │           9 │    1787416.10 │
│ Customer#000027571 │           9 │    1782722.22 │
│ Customer#000088354 │           9 │    1760292.59 │
│ Customer#000040912 │           9 │    1754607.20 │
│ Customer#000042577 │           9 │    1748399.16 │
│ Customer#000115471 │          12 │    1738301.97 │
│ Customer#000116560 │           9 │    1727262.17 │
│ Customer#000109915 │           8 │    1725540.72 │
│         ·          │           · │          ·    │
│         ·          │           · │          ·    │
│         ·          │           · │          ·    │
│ Customer#000132850 │           1 │       1520.56 │
│ Customer#000142463 │           1 │       1515.82 │
│ Customer#000083533 │           1 │       1495.20 │
│ Customer#000052211 │           1 │       1421.52 │
│ Customer#000096215 │           1 │       1371.84 │
│ Customer#000127630 │           1 │       1356.05 │
│ Customer#000013724 │           1 │       1349.10 │
│ Customer#000001703 │           1 │       1318.63 │
│ Customer#000073484 │           1 │       1316.03 │
│ Customer#000052280 │           1 │       1313.23 │
│ Customer#000056426 │           1 │       1297.97 │
│ Customer#000112282 │           1 │       1289.73 │
│ Customer#000097105 │           1 │       1270.51 │
│ Customer#000133955 │           1 │       1184.69 │
│ Customer#000116092 │           1 │       1122.27 │
│ Customer#000009835 │           1 │       1089.19 │
│ Customer#000094016 │           1 │       1088.58 │
│ Customer#000060863 │           1 │       1048.91 │
│ Customer#000046784 │           1 │       1031.61 │
│ Customer#000019379 │           1 │        909.18 │
├────────────────────┴─────────────┴───────────────┤
│ 39128 rows (40 shown)                  3 columns │
└─────────────────────
…
